<?xml version="1.0" encoding="utf-8"?><!-- Uploaded to: SVG Repo, www.svgrepo.com, Generator: SVG Repo Mixer Tools -->
<svg id="dollar" xmlns="http://www.w3.org/2000/svg" xmlns:xlink="http://www.w3.org/1999/xlink" viewBox="0 0 40 40" width="100px" height="100px">
  <defs>
    <linearGradient id="linear-gradient" x1="0.5" x2="0.5" y2="1" gradientUnits="objectBoundingBox">
      <stop offset="0" stop-color="#9f78ff"/>
      <stop offset="1" stop-color="#f067ff"/>
    </linearGradient>
  </defs>
<path d="M8,16a1,1,0,0,0-2,0,5.006,5.006,0,0,0,5,5v1a1,1,0,0,0,2,0V21a5,5,0,0,0,0-10V5a3,3,0,0,1,3,3,1,1,0,0,0,2,0,5.006,5.006,0,0,0-5-5V2a1,1,0,0,0-2,0V3a5,5,0,0,0,0,10v6A3,3,0,0,1,8,16Zm5-3a3,3,0,0,1,0,6ZM8,8a3,3,0,0,1,3-3v6A3,3,0,0,1,8,8Z" fill="url(#linear-gradient)"/></svg>