<?xml version="1.0" encoding="utf-8"?><!-- Uploaded to: SVG Repo, www.svgrepo.com, Generator: SVG Repo Mixer Tools -->
<svg id="house" xmlns="http://www.w3.org/2000/svg" xmlns:xlink="http://www.w3.org/1999/xlink" viewBox="0 0 40 40" width="100px" height="100px">
  <defs>
    <linearGradient id="linear-gradient" x1="0.5" x2="0.5" y2="1" gradientUnits="objectBoundingBox">
      <stop offset="0" stop-color="#9f78ff"/>
      <stop offset="1" stop-color="#f067ff"/>
    </linearGradient>
  </defs>
<path d="M9,12h6v2H9Zm13.781-1.375A1,1,0,0,1,22,11H21V22a1,1,0,0,1-1,1H4a1,1,0,0,1-1-1V11H2l.016-.016a.979.979,0,0,1-.8-.359,1,1,0,0,1,.156-1.406l10-8a1,1,0,0,1,1.25,0L17,4.719V2a1,1,0,0,1,2,0V6.319l3.625,2.9A1,1,0,0,1,22.781,10.625ZM9.851,5h4.3L12,3.28ZM4.979,8.9H19.021L16.649,7h-9.3ZM13,18a1,1,0,0,0-2,0v3h2Zm6-7H5v1H7v2H5v2H7v2H5v3H9V18a3,3,0,0,1,6,0v3h4V18H17V16h2V14H17V12h2Z" fill="url(#linear-gradient)"/></svg>