<?xml version="1.0" encoding="utf-8"?><!-- Uploaded to: SVG Repo, www.svgrepo.com, Generator: SVG Repo Mixer Tools -->
<svg id="linkedin" xmlns="http://www.w3.org/2000/svg" xmlns:xlink="http://www.w3.org/1999/xlink" viewBox="0 0 40 40" width="100px" height="100px">
  <defs>
    <linearGradient id="linear-gradient" x1="0.5" x2="0.5" y2="1" gradientUnits="objectBoundingBox">
      <stop offset="0" stop-color="#9f78ff"/>
      <stop offset="1" stop-color="#f067ff"/>
    </linearGradient>
  </defs>
<path d="M21,2H3A1,1,0,0,0,2,3V21a1,1,0,0,0,1,1H21a1,1,0,0,0,1-1V3A1,1,0,0,0,21,2ZM8.078,18.737H5.085v-9H8.078ZM6.582,8.5h-.02A1.56,1.56,0,1,1,6.6,5.393,1.56,1.56,0,1,1,6.582,8.5ZM18.87,18.737H15.877V13.921c0-1.211-.433-2.036-1.516-2.036a1.637,1.637,0,0,0-1.535,1.094,2.032,2.032,0,0,0-.1.731v5.027H9.734s.04-8.16,0-9h2.992V11.01a2.97,2.97,0,0,1,2.7-1.488c1.969,0,3.446,1.287,3.446,4.053Z" fill="url(#linear-gradient)"/></svg>